sim/tinker_waves.vcd
$date
	Fri Mar 27 00:34:32 2026
$end
$version
	Icarus Verilog
$end
$timescale
	1ps
$end
$scope module tb_tinker $end
$var reg 1 ! clk $end
$var reg 1 " reset $end
$scope module uut $end
$var wire 1 ! clk $end
$var wire 1 " reset $end
$var wire 64 # sp_data [63:0] $end
$var wire 5 $ rt_idx [4:0] $end
$var wire 64 % rt_data [63:0] $end
$var wire 5 & rs_idx [4:0] $end
$var wire 64 ' rs_data [63:0] $end
$var wire 5 ( rd_idx [4:0] $end
$var wire 64 ) rd_data [63:0] $end
$var wire 64 * pc_plus_4 [63:0] $end
$var wire 64 + pc [63:0] $end
$var wire 5 , opcode [4:0] $end
$var wire 64 - lit_zext [63:0] $end
$var wire 64 . lit_sext [63:0] $end
$var wire 12 / lit12 [11:0] $end
$var wire 32 0 instruction [31:0] $end
$var wire 64 1 data_read_data [63:0] $end
$var wire 64 2 alu_result [63:0] $end
$var wire 1 3 alu_a_is_zero $end
$var wire 1 4 alu_a_gt_b_signed $end
$var parameter 6 5 ALU_ADD $end
$var parameter 6 6 ALU_AND $end
$var parameter 6 7 ALU_DIV $end
$var parameter 6 8 ALU_FADD $end
$var parameter 6 9 ALU_FDIV $end
$var parameter 6 : ALU_FMUL $end
$var parameter 6 ; ALU_FSUB $end
$var parameter 6 < ALU_MUL $end
$var parameter 6 = ALU_NOT $end
$var parameter 6 > ALU_OR $end
$var parameter 6 ? ALU_PASS_A $end
$var parameter 6 @ ALU_PASS_B $end
$var parameter 6 A ALU_SHL $end
$var parameter 6 B ALU_SHR $end
$var parameter 6 C ALU_SUB $end
$var parameter 6 D ALU_XOR $end
$var parameter 64 E MEM_SIZE $end
$var parameter 5 F OP_ADD $end
$var parameter 5 G OP_ADDF $end
$var parameter 5 H OP_ADDI $end
$var parameter 5 I OP_AND $end
$var parameter 5 J OP_BR $end
$var parameter 5 K OP_BRGT $end
$var parameter 5 L OP_BRNZ $end
$var parameter 5 M OP_BRR_LIT $end
$var parameter 5 N OP_BRR_REG $end
$var parameter 5 O OP_CALL $end
$var parameter 5 P OP_DIV $end
$var parameter 5 Q OP_DIVF $end
$var parameter 5 R OP_MOV_LIT $end
$var parameter 5 S OP_MOV_LOAD $end
$var parameter 5 T OP_MOV_REG $end
$var parameter 5 U OP_MOV_STORE $end
$var parameter 5 V OP_MUL $end
$var parameter 5 W OP_MULF $end
$var parameter 5 X OP_NOT $end
$var parameter 5 Y OP_OR $end
$var parameter 5 Z OP_PRIV $end
$var parameter 5 [ OP_RETURN $end
$var parameter 5 \ OP_SHFTL $end
$var parameter 5 ] OP_SHFTLI $end
$var parameter 5 ^ OP_SHFTR $end
$var parameter 5 _ OP_SHFTRI $end
$var parameter 5 ` OP_SUB $end
$var parameter 5 a OP_SUBF $end
$var parameter 5 b OP_SUBI $end
$var parameter 5 c OP_XOR $end
$var reg 64 d alu_a [63:0] $end
$var reg 64 e alu_b [63:0] $end
$var reg 6 f alu_op [5:0] $end
$var reg 64 g data_addr [63:0] $end
$var reg 64 h data_write_data [63:0] $end
$var reg 1 i data_write_en $end
$var reg 1 j pc_redirect $end
$var reg 64 k pc_redirect_target [63:0] $end
$var reg 5 l rf_write_addr [4:0] $end
$var reg 64 m rf_write_data [63:0] $end
$var reg 1 n rf_write_en $end
$scope module alu_fpu $end
$var wire 64 o a [63:0] $end
$var wire 64 p b [63:0] $end
$var wire 6 q op [5:0] $end
$var wire 1 3 a_is_zero $end
$var wire 1 4 a_gt_b_signed $end
$var parameter 6 r ALU_ADD $end
$var parameter 6 s ALU_AND $end
$var parameter 6 t ALU_DIV $end
$var parameter 6 u ALU_FADD $end
$var parameter 6 v ALU_FDIV $end
$var parameter 6 w ALU_FMUL $end
$var parameter 6 x ALU_FSUB $end
$var parameter 6 y ALU_MUL $end
$var parameter 6 z ALU_NOT $end
$var parameter 6 { ALU_OR $end
$var parameter 6 | ALU_PASS_A $end
$var parameter 6 } ALU_PASS_B $end
$var parameter 6 ~ ALU_SHL $end
$var parameter 6 !" ALU_SHR $end
$var parameter 6 "" ALU_SUB $end
$var parameter 6 #" ALU_XOR $end
$var parameter 64 $" QUIET_NAN $end
$var reg 64 %" result [63:0] $end
$upscope $end
$scope module decoder $end
$var wire 5 &" rt_idx [4:0] $end
$var wire 5 '" rs_idx [4:0] $end
$var wire 5 (" rd_idx [4:0] $end
$var wire 5 )" opcode [4:0] $end
$var wire 64 *" lit_zext [63:0] $end
$var wire 64 +" lit_sext [63:0] $end
$var wire 12 ," lit12 [11:0] $end
$var wire 32 -" instruction [31:0] $end
$upscope $end
$scope module fetch $end
$var wire 1 ! clk $end
$var wire 1 j redirect $end
$var wire 64 ." redirect_target [63:0] $end
$var wire 1 " reset $end
$var reg 64 /" pc [63:0] $end
$upscope $end
$scope module memory $end
$var wire 1 ! clk $end
$var wire 64 0" data_addr [63:0] $end
$var wire 64 1" data_write_data [63:0] $end
$var wire 1 i data_write_en $end
$var wire 64 2" inst_addr [63:0] $end
$var wire 32 3" inst_word [31:0] $end
$var wire 32 4" inst_idx [31:0] $end
$var wire 64 5" data_read_data [63:0] $end
$var wire 32 6" data_idx [31:0] $end
$var parameter 64 7" MEM_SIZE $end
$upscope $end
$scope module reg_file $end
$var wire 1 ! clk $end
$var wire 5 8" read_addr_a [4:0] $end
$var wire 5 9" read_addr_b [4:0] $end
$var wire 5 :" read_addr_c [4:0] $end
$var wire 64 ;" read_data_a [63:0] $end
$var wire 64 <" read_data_b [63:0] $end
$var wire 64 =" read_data_c [63:0] $end
$var wire 1 " reset $end
$var wire 64 >" sp_data [63:0] $end
$var wire 5 ?" write_addr [4:0] $end
$var wire 64 @" write_data [63:0] $end
$var wire 1 n write_en $end
$var parameter 64 A" MEM_SIZE $end
$var integer 32 B" i [31:0] $end
$upscope $end
$upscope $end
$scope task write_inst $end
$var reg 64 C" addr [63:0] $end
$var reg 32 D" inst [31:0] $end
$upscope $end
$scope task write_mem64 $end
$var reg 64 E" addr [63:0] $end
$var reg 64 F" data [63:0] $end
$upscope $end
$upscope $end
$enddefinitions $end
$comment Show the parameter values. $end
$dumpall
b10000000000000000000 A"
b10000000000000000000 7"
b111111111111000000000000000000000000000000000000000000000000000 $"
b100 #"
b1001 ""
b110 !"
b111 ~
b1 }
b0 |
b11 {
b101 z
b1010 y
b1101 x
b1110 w
b1111 v
b1100 u
b1011 t
b10 s
b1000 r
b10 c
b11011 b
b10101 a
b11010 `
b101 _
b100 ^
b111 ]
b110 \
b1101 [
b1111 Z
b1 Y
b11 X
b10110 W
b11100 V
b10011 U
b10001 T
b10000 S
b10010 R
b10111 Q
b11101 P
b1100 O
b1001 N
b1010 M
b1011 L
b1110 K
b1000 J
b0 I
b11001 H
b10100 G
b11000 F
b10000000000000000000 E
b100 D
b1001 C
b110 B
b111 A
b1 @
b0 ?
b11 >
b101 =
b1010 <
b1101 ;
b1110 :
b1111 9
b1100 8
b1011 7
b10 6
b1000 5
$end
#0
$dumpvars
b11111111111000000000000000000000000000000000000000000000000000 F"
b100001000 E"
b1111000000000000000000000000000 D"
b10000000111000 C"
bx B"
b0 @"
bx ?"
bx >"
bx ="
bx <"
bx ;"
bx :"
bx 9"
bx 8"
b0 6"
bx 5"
bx 4"
bx 3"
bx 2"
b0 1"
b0 0"
bx /"
b0 ."
bx -"
bx ,"
bx +"
b0xxxxxxxxxxxx *"
bx )"
bx ("
bx '"
bx &"
b0 %"
b0 q
b0 p
b0 o
0n
b0 m
bx l
b0 k
0j
0i
b0 h
b0 g
b0 f
b0 e
b0 d
04
13
b0 2
bx 1
bx 0
bx /
bx .
b0xxxxxxxxxxxx -
bx ,
bx +
bx *
bx )
bx (
bx '
bx &
bx %
bx $
bx #
1"
0!
$end
#5000
b1111 m
b1111 @"
b1111 2
b1111 %"
1n
b1111 e
b1111 p
b1000 f
b1000 q
b1 l
b1 ?"
b1111 .
b1111 +"
b1111 -
b1111 *"
b1111 /
b1111 ,"
b0 %
b0 ="
b0 $
b0 &"
b0 :"
b0 '
b0 <"
b0 &
b0 '"
b0 9"
b0 )
b0 ;"
b1 (
b1 ("
b1 8"
b11001 ,
b11001 )"
b11001000010000000000000000001111 0
b11001000010000000000000000001111 -"
b11001000010000000000000000001111 3"
b10000000000000 4"
b10000000000100 *
b10000000000000 +
b10000000000000 /"
b10000000000000 2"
b10000000000000000000 #
b10000000000000000000 >"
b11111 B"
1!
#10000
0!
#15000
b10 l
b10 ?"
b101 .
b101 +"
b101 -
b101 *"
b101 /
b101 ,"
b10 (
b10 ("
b10 8"
b11001000100000000000000000000101 0
b11001000100000000000000000000101 -"
b11001000100000000000000000000101 3"
b101 2
b101 %"
b10000000000100 4"
13
04
b0 d
b0 o
b101 e
b101 p
b1000 f
b1000 q
b101 m
b101 @"
1n
b0 )
b0 ;"
b10000000001000 *
b10000000000100 +
b10000000000100 /"
b10000000000100 2"
1!
0"
#20000
0!
#25000
b11 l
b11 ?"
b0 .
b0 +"
b0 -
b0 *"
b0 /
b0 ,"
b101 %
b101 ="
b10 $
b10 &"
b10 :"
b1111 '
b1111 <"
b1 &
b1 '"
b1 9"
b11 (
b11 ("
b11 8"
b11000 ,
b11000 )"
b11000000110000100010000000000000 0
b11000000110000100010000000000000 -"
b11000000110000100010000000000000 3"
b10100 2
b10100 %"
b10000000001000 4"
03
14
b1111 d
b1111 o
b101 e
b101 p
b1000 f
b1000 q
b10100 m
b10100 @"
1n
b10000000001100 *
b10000000001000 +
b10000000001000 /"
b10000000001000 2"
b0 )
b0 ;"
1!
#30000
0!
#35000
b1010 2
b1010 %"
b100 l
b100 ?"
b100 (
b100 ("
b100 8"
b11010 ,
b11010 )"
b11010001000000100010000000000000 0
b11010001000000100010000000000000 -"
b11010001000000100010000000000000 3"
b10000000001100 4"
b101 e
b101 p
03
14
b1111 d
b1111 o
b1001 f
b1001 q
b1010 m
b1010 @"
1n
b0 )
b0 ;"
b10000000010000 *
b10000000001100 +
b10000000001100 /"
b10000000001100 2"
1!
#40000
0!
#45000
b1001011 2
b1001011 %"
b101 l
b101 ?"
b101 (
b101 ("
b101 8"
b11100 ,
b11100 )"
b11100001010000100010000000000000 0
b11100001010000100010000000000000 -"
b11100001010000100010000000000000 3"
b10000000010000 4"
b101 e
b101 p
03
14
b1111 d
b1111 o
b1010 f
b1010 q
b1001011 m
b1001011 @"
1n
b10000000010100 *
b10000000010000 +
b10000000010000 /"
b10000000010000 2"
b0 )
b0 ;"
1!
#50000
0!
#55000
b11 2
b11 %"
b110 l
b110 ?"
b110 (
b110 ("
b110 8"
b11101 ,
b11101 )"
b11101001100000100010000000000000 0
b11101001100000100010000000000000 -"
b11101001100000100010000000000000 3"
b10000000010100 4"
b101 e
b101 p
03
14
b1111 d
b1111 o
b1011 f
b1011 q
b11 m
b11 @"
1n
b0 )
b0 ;"
b10000000011000 *
b10000000010100 +
b10000000010100 /"
b10000000010100 2"
1!
#60000
0!
#65000
b1010 2
b1010 %"
b111 l
b111 ?"
b111 (
b111 ("
b111 8"
b10 ,
b10 )"
b10001110000100010000000000000 0
b10001110000100010000000000000 -"
b10001110000100010000000000000 3"
b10000000011000 4"
b101 e
b101 p
03
14
b1111 d
b1111 o
b100 f
b100 q
b1010 m
b1010 @"
1n
b10000000011100 *
b10000000011000 +
b10000000011000 /"
b10000000011000 2"
b0 )
b0 ;"
1!
#70000
0!
#75000
b0 2
b0 %"
b1000 l
b1000 ?"
b10 .
b10 +"
b10 -
b10 *"
b10 /
b10 ,"
b0 %
b0 ="
b0 $
b0 &"
b0 :"
b1000 (
b1000 ("
b1000 8"
b111 ,
b111 )"
b111010000000100000000000000010 0
b111010000000100000000000000010 -"
b111010000000100000000000000010 3"
b10000000011100 4"
b10 e
b10 p
13
04
b0 d
b0 o
b111 f
b111 q
b0 m
b0 @"
1n
b0 )
b0 ;"
b10000000100000 *
b10000000011100 +
b10000000011100 /"
b10000000011100 2"
1!
#80000
0!
#85000
b100000000 6"
b100000000 g
b100000000 0"
1i
b0 l
b0 ?"
b100000000 .
b100000000 +"
b100000000 -
b100000000 *"
b100000000 /
b100000000 ,"
b0 '
b0 <"
b1000 &
b1000 '"
b1000 9"
b0 (
b0 ("
b0 8"
b10011 ,
b10011 )"
b10011000000100000000000100000000 0
b10011000000100000000000100000000 -"
b10011000000100000000000100000000 3"
b10000000100000 4"
b0 e
b0 p
b0 f
b0 q
0n
b10000000100100 *
b10000000100000 +
b10000000100000 /"
b10000000100000 2"
1!
#90000
0!
#95000
1n
b1001 l
b1001 ?"
b0 &
b0 '"
b0 9"
b1001 (
b1001 ("
b1001 8"
b10000 ,
b10000 )"
b10000010010000000000000100000000 0
b10000010010000000000000100000000 -"
b10000010010000000000000100000000 3"
b10000000100100 4"
b100000000 g
b100000000 0"
0i
b0 1
b0 5"
b10000000101000 *
b10000000100100 +
b10000000100100 /"
b10000000100100 2"
1!
#100000
0!
#105000
bx 1
bx 5"
b0 6"
b10000000110000 k
b10000000110000 ."
1j
b0 l
b0 ?"
b1000 .
b1000 +"
b1000 -
b1000 *"
b1000 /
b1000 ,"
b0 (
b0 ("
b0 8"
b1010 ,
b1010 )"
b1010000000000000000000000001000 0
b1010000000000000000000000001000 -"
b1010000000000000000000000001000 3"
b10000000101000 4"
b0 g
b0 0"
0n
b10000000101100 *
b10000000101000 +
b10000000101000 /"
b10000000101000 2"
1!
#110000
0!
#115000
b11111111111000000000000000000000000000000000000000000000000000 1
b11111111111000000000000000000000000000000000000000000000000000 5"
b100001000 6"
b11111111111000000000000000000000000000000000000000000000000000 m
b11111111111000000000000000000000000000000000000000000000000000 @"
1n
b100001000 g
b100001000 0"
b1011 l
b1011 ?"
b100001000 .
b100001000 +"
b100001000 -
b100001000 *"
b100001000 /
b100001000 ,"
b1011 (
b1011 ("
b1011 8"
b10000 ,
b10000 )"
b10000010110000000000000100001000 0
b10000010110000000000000100001000 -"
b10000010110000000000000100001000 3"
b10000000110000 4"
b0 k
b0 ."
0j
b10000000110100 *
b10000000110000 +
b10000000110000 /"
b10000000110000 2"
1!
#120000
0!
#125000
bx 1
bx 5"
b111111111111000000000000000000000000000000000000000000000000000 2
b111111111111000000000000000000000000000000000000000000000000000 %"
b0 6"
b11111111111000000000000000000000000000000000000000000000000000 e
b11111111111000000000000000000000000000000000000000000000000000 p
03
04
b11111111111000000000000000000000000000000000000000000000000000 d
b11111111111000000000000000000000000000000000000000000000000000 o
b1100 f
b1100 q
b1100 l
b1100 ?"
b0 .
b0 +"
b0 -
b0 *"
b0 /
b0 ,"
b11111111111000000000000000000000000000000000000000000000000000 %
b11111111111000000000000000000000000000000000000000000000000000 ="
b1011 $
b1011 &"
b1011 :"
b11111111111000000000000000000000000000000000000000000000000000 '
b11111111111000000000000000000000000000000000000000000000000000 <"
b1011 &
b1011 '"
b1011 9"
b1100 (
b1100 ("
b1100 8"
b10100 ,
b10100 )"
b10100011000101101011000000000000 0
b10100011000101101011000000000000 -"
b10100011000101101011000000000000 3"
b10000000110100 4"
b0 g
b0 0"
b111111111111000000000000000000000000000000000000000000000000000 m
b111111111111000000000000000000000000000000000000000000000000000 @"
1n
b10000000111000 *
b10000000110100 +
b10000000110100 /"
b10000000110100 2"
b0 )
b0 ;"
1!
#130000
0!
#135000
b0 2
b0 %"
b0 l
b0 ?"
b0 %
b0 ="
b0 $
b0 &"
b0 :"
b0 '
b0 <"
b0 &
b0 '"
b0 9"
b0 (
b0 ("
b0 8"
b1111 ,
b1111 )"
b1111000000000000000000000000000 0
b1111000000000000000000000000000 -"
b1111000000000000000000000000000 3"
b10000000111000 4"
04
b0 e
b0 p
13
b0 d
b0 o
b0 f
b0 q
b0 m
b0 @"
0n
b0 )
b0 ;"
b10000000111100 *
b10000000111000 +
b10000000111000 /"
b10000000111000 2"
1!
#140000
0!
#145000
bx l
bx ?"
bx .
bx +"
b0xxxxxxxxxxxx -
b0xxxxxxxxxxxx *"
bx /
bx ,"
bx %
bx ="
bx $
bx &"
bx :"
bx '
bx <"
bx &
bx '"
bx 9"
bx )
bx ;"
bx (
bx ("
bx 8"
bx ,
bx )"
bx 0
bx -"
bx 3"
b10000000111100 4"
b10000001000000 *
b10000000111100 +
b10000000111100 /"
b10000000111100 2"
1!
#150000
0!
#155000
b10000001000000 4"
b10000001000100 *
b10000001000000 +
b10000001000000 /"
b10000001000000 2"
1!
#160000
0!
#165000
b10000001000100 4"
b10000001001000 *
b10000001000100 +
b10000001000100 /"
b10000001000100 2"
1!
#170000
0!
#175000
b10000001001000 4"
b10000001001100 *
b10000001001000 +
b10000001001000 /"
b10000001001000 2"
1!
#180000
0!
#185000
b10000001001100 4"
b10000001010000 *
b10000001001100 +
b10000001001100 /"
b10000001001100 2"
1!
#190000
0!
#195000
b10000001010000 4"
b10000001010100 *
b10000001010000 +
b10000001010000 /"
b10000001010000 2"
1!
#200000
0!
#205000
b10000001010100 4"
b10000001011000 *
b10000001010100 +
b10000001010100 /"
b10000001010100 2"
1!
#210000
0!
#215000
b10000001011000 4"
b10000001011100 *
b10000001011000 +
b10000001011000 /"
b10000001011000 2"
1!
#220000
0!
#225000
b10000001011100 4"
b10000001100000 *
b10000001011100 +
b10000001011100 /"
b10000001011100 2"
1!
#230000
0!
#235000
b10000001100000 4"
b10000001100100 *
b10000001100000 +
b10000001100000 /"
b10000001100000 2"
1!
#240000
0!
#245000
b10000001100100 4"
b10000001101000 *
b10000001100100 +
b10000001100100 /"
b10000001100100 2"
1!
#250000
0!
#255000
b10000001101000 4"
b10000001101100 *
b10000001101000 +
b10000001101000 /"
b10000001101000 2"
1!
#260000
0!
#265000
b10000001101100 4"
b10000001110000 *
b10000001101100 +
b10000001101100 /"
b10000001101100 2"
1!
#270000
0!
#275000
b10000001110000 4"
b10000001110100 *
b10000001110000 +
b10000001110000 /"
b10000001110000 2"
1!
#280000
0!
#285000
b10000001110100 4"
b10000001111000 *
b10000001110100 +
b10000001110100 /"
b10000001110100 2"
1!
#290000
0!
#295000
b10000001111000 4"
b10000001111100 *
b10000001111000 +
b10000001111000 /"
b10000001111000 2"
1!
#300000
0!
#305000
b10000001111100 4"
b10000010000000 *
b10000001111100 +
b10000001111100 /"
b10000001111100 2"
1!
#310000
0!
#315000
b10000010000000 4"
b10000010000100 *
b10000010000000 +
b10000010000000 /"
b10000010000000 2"
1!
#320000
0!
#325000
b10000010000100 4"
b10000010001000 *
b10000010000100 +
b10000010000100 /"
b10000010000100 2"
1!
#330000
0!
#335000
b10000010001000 4"
b10000010001100 *
b10000010001000 +
b10000010001000 /"
b10000010001000 2"
1!
#340000
0!
#345000
b10000010001100 4"
b10000010010000 *
b10000010001100 +
b10000010001100 /"
b10000010001100 2"
1!
#350000
0!
#355000
b10000010010000 4"
b10000010010100 *
b10000010010000 +
b10000010010000 /"
b10000010010000 2"
1!
#360000
0!
#365000
b10000010010100 4"
b10000010011000 *
b10000010010100 +
b10000010010100 /"
b10000010010100 2"
1!
#370000
0!
#375000
b10000010011000 4"
b10000010011100 *
b10000010011000 +
b10000010011000 /"
b10000010011000 2"
1!
#380000
0!
#385000
b10000010011100 4"
b10000010100000 *
b10000010011100 +
b10000010011100 /"
b10000010011100 2"
1!
#390000
0!
#395000
b10000010100000 4"
b10000010100100 *
b10000010100000 +
b10000010100000 /"
b10000010100000 2"
1!
#400000
0!
#405000
b10000010100100 4"
b10000010101000 *
b10000010100100 +
b10000010100100 /"
b10000010100100 2"
1!
#410000
0!
#415000
b10000010101000 4"
b10000010101100 *
b10000010101000 +
b10000010101000 /"
b10000010101000 2"
1!
#420000
0!
#425000
b10000010101100 4"
b10000010110000 *
b10000010101100 +
b10000010101100 /"
b10000010101100 2"
1!
#430000
0!
#435000
b10000010110000 4"
b10000010110100 *
b10000010110000 +
b10000010110000 /"
b10000010110000 2"
1!
#440000
0!
#445000
b10000010110100 4"
b10000010111000 *
b10000010110100 +
b10000010110100 /"
b10000010110100 2"
1!
#450000
0!
#455000
b10000010111000 4"
b10000010111100 *
b10000010111000 +
b10000010111000 /"
b10000010111000 2"
1!
#460000
0!
#465000
b10000010111100 4"
b10000011000000 *
b10000010111100 +
b10000010111100 /"
b10000010111100 2"
1!
#470000
0!
#475000
b10000011000000 4"
b10000011000100 *
b10000011000000 +
b10000011000000 /"
b10000011000000 2"
1!
#480000
0!
#485000
b10000011000100 4"
b10000011001000 *
b10000011000100 +
b10000011000100 /"
b10000011000100 2"
1!
#490000
0!
#495000
b10000011001000 4"
b10000011001100 *
b10000011001000 +
b10000011001000 /"
b10000011001000 2"
1!
#500000
0!
#505000
b10000011001100 4"
b10000011010000 *
b10000011001100 +
b10000011001100 /"
b10000011001100 2"
1!
#510000
0!
#515000
b10000011010000 4"
b10000011010100 *
b10000011010000 +
b10000011010000 /"
b10000011010000 2"
1!
